…
## Q1: How many aisles are there, and which aisles are the most items ordered from?

``` r
p1q1 <- instacart |> 
  group_by(aisle) |> 
  summarise(Total_order = n()) |> 
  arrange(desc(Total_order))

p1q1
```

    ## # A tibble: 134 × 2
    ##    aisle                         Total_order
    ##    <chr>                               <int>
    ##  1 fresh vegetables                   150609
    ##  2 fresh fruits                       150473
    ##  3 packaged vegetables fruits          78493
    ##  4 yogurt                              55240
    ##  5 packaged cheese                     41699
    ##  6 water seltzer sparkling water       36617
    ##  7 milk                                32644
    ##  8 chips pretzels                      31269
    ##  9 soy lactosefree                     26240
    ## 10 bread                               23635
    ## # ℹ 124 more rows
…
    ## `summarise()` has grouped output by 'aisle'. You can override using the
    ## `.groups` argument.

``` r
p1q3
```

    ## # A tibble: 402 × 3
    ## # Groups:   aisle [134]
    ##    aisle                  product_name                              product_sale
    ##    <chr>                  <chr>                                            <int>
    ##  1 air fresheners candles Air Effects Linen & Sky Scent Air Freshe…           36
    ##  2 air fresheners candles After The Rain Gel Air Freshener                    32
    ##  3 air fresheners candles Air Effects Linen & Sky Air Refresher               30
    ##  4 asian foods            Organic Sea Salt Roasted Seaweed Snacks            345
    ##  5 asian foods            Sriracha Chili Sauce                               188
    ##  6 asian foods            Coconut Milk                                       185
    ##  7 baby accessories       Free & Clear Unscented Baby Wipes                  225
    ##  8 baby accessories       Totz Toothbrush Extra Soft 18+ Months               23
    ##  9 baby accessories       Swaddlers Size 4 Giant Pack Diapers                 10
    ## 10 baby bath body care    Calming Shampoo & Bodywash                          18
    ## # ℹ 392 more rows
…
